week25
…
## Parsed with column specification:
## cols(
##   year = col_double(),
##   species = col_character(),
##   species_latin = col_character(),
##   how_many_counted = col_double(),
##   total_hours = col_double(),
##   how_many_counted_by_hour = col_double()
## )

#sum of species counted
spec_counts<- bird_counts %>% group_by(species_latin) %>% summarize(count_by_species=sum(how_many_counted)) %>% filter(count_by_species!=0)
spec_counts

## # A tibble: 194 x 2
##    species_latin       count_by_species
##    <chr>                          <dbl>
##  1 Acanthis flammea                4917
##  2 Acanthis hornemanni               11
##  3 Accipiter cooperii               372
##  4 Accipiter gentilis                61
##  5 Accipiter striatus               325
##  6 Actitis macularius                 1
##  7 Aegolius acadicus                 17
##  8 Aegolius funereus                  1
##  9 Agelaius phoeniceus              660
## 10 Aix sponsa                        47
## #  with 184 more rows

##194 different species observed over the years

#Add a genus variable
bird_genus <- bird_counts %>% separate(species_latin, c("genus", NA))
#sum of genus counted
gen_counts<- bird_genus %>% group_by(genus) %>% summarize(count_by_genus=sum(how_many_counted)) %>% filter(count_by_genus!=0)
gen_counts

## # A tibble: 126 x 2
##    genus     count_by_genus
##    <chr>              <dbl>
##  1 Acanthis            4928
##  2 Accipiter            758
##  3 Actitis                1
##  4 Aegolius              18
##  5 Agelaius             660
##  6 Aix                   47
##  7 Anas              162643
##  8 Anthus                12
##  9 Aquila                 2
## 10 Ardea                362
## #  with 116 more rows
…
####evolution between 1921 and 2017
evolution<-bird_counts %>% filter(year==c(1921,2017)) %>% group_by(species_latin) %>% summarise(min=min(how_many_counted_by_hour), max=max(how_many_counted_by_hour), increase=max(how_many_counted_by_hour)-min(how_many_counted_by_hour))

#most important decrease in count between 1921 and 2017
evolution %>% top_n(-3, increase)

## # A tibble: 46 x 4
##    species_latin           min   max increase
##    <chr>                 <dbl> <dbl>    <dbl>
##  1 Aegolius funereus         0     0        0
##  2 Anthus rubescens          0     0        0
##  3 Aquila chrysaetos         0     0        0
##  4 Arenaria interpres        0     0        0
##  5 Asio flammeus             0     0        0
##  6 Aythya fuligula           0     0        0
##  7 Botaurus lentiginosus     0     0        0
##  8 Branta hutchinsii         0     0        0
##  9 Calidris maritima         0     0        0
## 10 Calidris minutilla        0     0        0
## #  with 36 more rows
…
####evolution between 1921 and 2017
evolution<-bird_genus %>% filter(year==c(1921,2017)) %>% group_by(genus) %>% summarise(min=min(how_many_counted_by_hour), max=max(how_many_counted_by_hour), increase=max(how_many_counted_by_hour)-min(how_many_counted_by_hour))

#most important decrease in count between 1921 and 2017
evolution %>% top_n(-3, increase)

## # A tibble: 34 x 4
##    genus             min   max increase
##    <chr>           <dbl> <dbl>    <dbl>
##  1 Aegolius            0     0        0
##  2 Anthus              0     0        0
##  3 Aquila              0     0        0
##  4 Arenaria            0     0        0
##  5 Botaurus            0     0        0
##  6 Branta              0     0        0
##  7 Calidris            0     0        0
##  8 Chroicocephalus     0     0        0
##  9 Colinus             0     0        0
## 10 Euphagus            0     0        0
## #  with 24 more rows
…
